<?xml version="1.0" encoding="UTF-8"?>
<svg width="428px" height="512px" viewBox="0 0 428 512" version="1.1" xmlns="http://www.w3.org/2000/svg" xmlns:xlink="http://www.w3.org/1999/xlink">
    <!-- Generator: Sketch 52.6 (67491) - http://www.bohemiancoding.com/sketch -->
    <title>Slice 1</title>
    <desc>Created with Sketch.</desc>
    <g id="Page-1" stroke="none" stroke-width="1" fill="none" fill-rule="evenodd">
        <g id="hourglass" transform="translate(0.666667, 0.000000)" fill="#002060" fill-rule="nonzero">
            <path d="M418.133333,494.933333 L392.533333,494.933333 L392.533333,460.8 L349.866667,460.8 L349.866667,373.572267 C349.866667,350.532267 338.414933,329.130667 319.240533,316.347733 L228.718933,256 L319.240533,195.652267 C338.390989,182.912407 349.888916,161.428679 349.866667,138.427733 L349.866667,51.2 L392.533333,51.2 L392.533333,17.0666667 L418.133333,17.0666667 C422.846163,17.0666667 426.666667,13.2461632 426.666667,8.53333333 C426.666667,3.82050347 422.846163,2.885776e-16 418.133333,0 L8.53333333,0 C3.82050347,-2.885776e-16 0,3.82050347 0,8.53333333 C0,13.2461632 3.82050347,17.0666667 8.53333333,17.0666667 L34.1333333,17.0666667 L34.1333333,51.2 L76.8,51.2 L76.8,138.427733 C76.8,161.467733 88.2517333,182.869333 107.426133,195.652267 L197.947733,256 L107.426133,316.347733 C88.2756777,329.087593 76.7777506,350.571321 76.8,373.572267 L76.8,460.8 L34.1333333,460.8 L34.1333333,494.933333 L8.53333333,494.933333 C3.82050347,494.933333 0,498.753837 0,503.466667 C0,508.179497 3.82050347,512 8.53333333,512 L418.133333,512 C422.846163,512 426.666667,508.179497 426.666667,503.466667 C426.666667,498.753837 422.846163,494.933333 418.133333,494.933333 Z M51.2,34.1333333 L51.2,17.0666667 L375.466667,17.0666667 L375.466667,34.1333333 L51.2,34.1333333 Z M116.8896,181.4528 C102.493958,171.871962 93.8510259,155.720122 93.8666667,138.427733 L93.8666455,51.2 L332.800021,51.2 L332.8,138.427733 C332.815641,155.720122 324.172708,171.871962 309.777067,181.4528 L213.333333,245.742933 L116.8896,181.4528 Z M93.8666667,373.572267 C93.8510259,356.279878 102.493958,340.128038 116.8896,330.5472 L213.333333,266.257067 L309.777067,330.5472 C324.172708,340.128038 332.815641,356.279878 332.8,373.572267 L332.800021,460.8 L93.8666455,460.8 L93.8666667,373.572267 Z M51.2,477.866667 L375.466667,477.866667 L375.466667,494.933333 L51.2,494.933333 L51.2,477.866667 Z" id="Shape"></path>
            <path d="M135.825067,153.053867 C130.932294,149.796224 127.994875,144.305781 128,138.427733 L128,119.466667 C128,114.753837 124.179497,110.933333 119.466667,110.933333 C114.753837,110.933333 110.933333,114.753837 110.933333,119.466667 L110.933333,138.427733 C110.918528,150.015106 116.71167,160.838797 126.3616,167.253333 L165.9392,193.6384 C169.860274,196.254021 175.159313,195.195741 177.774933,191.274667 C180.390554,187.353592 179.332274,182.054554 175.4112,179.438933 L135.825067,153.053867 Z M300.305067,352.085333 L260.727467,325.700267 C258.190976,324.008257 254.944486,323.797976 252.210917,325.148637 C249.477348,326.499297 247.671995,329.2057 247.474917,332.24837 C247.277839,335.29104 248.718976,338.207724 251.255467,339.899733 L290.833067,366.2848 C295.739733,369.553067 298.666667,375.0144 298.666667,380.910933 L298.666667,399.872 C298.666667,404.58483 302.48717,408.405333 307.2,408.405333 C311.91283,408.405333 315.733333,404.58483 315.733333,399.872 L315.733333,380.910933 C315.748138,369.323561 309.954996,358.49987 300.305067,352.085333 Z" id="Shape"></path>
        </g>
    </g>
</svg>