<?xml version="1.0" encoding="UTF-8"?>
<svg width="512px" height="479px" viewBox="0 0 512 479" version="1.1" xmlns="http://www.w3.org/2000/svg" xmlns:xlink="http://www.w3.org/1999/xlink">
    <!-- Generator: Sketch 52.6 (67491) - http://www.bohemiancoding.com/sketch -->
    <title>Slice 1</title>
    <desc>Created with Sketch.</desc>
    <g id="Page-1" stroke="none" stroke-width="1" fill="none" fill-rule="evenodd">
        <g id="meetin2" transform="translate(0.000000, 0.066667)" fill="#002060" fill-rule="nonzero">
            <path d="M221.866667,170.666667 L165.666133,170.666667 L116.9664,121.966933 C115.366462,120.366512 113.196329,119.46715 110.933333,119.466667 L8.53333333,119.466667 C3.82050347,119.466667 5.77155201e-16,123.28717 0,128 L0,307.2 C0.0277333333,330.752 19.1146667,349.838933 42.6666667,349.866667 L93.8666667,349.866667 C98.5794965,349.866667 102.4,353.68717 102.4,358.4 L102.4,452.266667 C102.4,466.405333 113.861333,477.866667 128,477.866667 L145.066667,477.866667 C159.205333,477.866667 170.666667,466.405333 170.666667,452.266667 L170.666667,341.333333 C170.629333,308.359467 143.9072,281.637333 110.933333,281.6 L102.4,281.6 L102.4,208.3328 L130.500267,236.433067 C132.100205,238.033488 134.270338,238.93285 136.533333,238.933333 L221.866667,238.933333 C240.717867,238.933333 256,223.6512 256,204.8 C256,185.9488 240.717867,170.666667 221.866667,170.666667 Z M221.866667,221.866667 L140.066133,221.866667 L99.8997333,181.700267 C97.459249,179.260519 93.7895542,178.5308 90.6013478,179.851281 C87.4131413,181.171763 85.3340702,184.282488 85.3333333,187.733333 L85.3333333,290.133333 C85.3333333,294.846163 89.1538368,298.666667 93.8666667,298.666667 L110.933333,298.666667 C134.485333,298.6944 153.572267,317.781333 153.6,341.333333 L153.6,452.266667 C153.6,456.979497 149.779497,460.8 145.066667,460.8 L128,460.8 C123.28717,460.8 119.466667,456.979497 119.466667,452.266667 L119.466667,358.4 C119.466667,344.261333 108.005333,332.8 93.8666667,332.8 L42.6666667,332.8 C28.528,332.8 17.0666667,321.338667 17.0666667,307.2 L17.0666667,136.533333 L107.400533,136.533333 L156.100267,185.233067 C157.700205,186.833488 159.870338,187.73285 162.133333,187.733333 L221.866667,187.733333 C231.2928,187.733333 238.933333,195.373867 238.933333,204.8 C238.933333,214.226133 231.2928,221.866667 221.866667,221.866667 Z M503.466667,119.466667 L401.066667,119.466667 C398.803671,119.46715 396.633538,120.366512 395.0336,121.966933 L346.333867,170.666667 L290.133333,170.666667 C271.282133,170.666667 256,185.9488 256,204.8 C256,223.6512 271.282133,238.933333 290.133333,238.933333 L375.466667,238.933333 C377.729662,238.93285 379.899795,238.033488 381.499733,236.433067 L409.6,208.3328 L409.6,281.6 L401.066667,281.6 C368.0928,281.637333 341.370667,308.359467 341.333333,341.333333 L341.333333,452.266667 C341.333333,466.405333 352.794667,477.866667 366.933333,477.866667 L384,477.866667 C398.138667,477.866667 409.6,466.405333 409.6,452.266667 L409.6,358.4 C409.6,353.68717 413.420503,349.866667 418.133333,349.866667 L469.333333,349.866667 C492.885333,349.838933 511.972267,330.752 512,307.2 L512,128 C512,123.28717 508.179497,119.466667 503.466667,119.466667 Z M494.933333,307.2 C494.933333,321.338667 483.472,332.8 469.333333,332.8 L418.133333,332.8 C403.994667,332.8 392.533333,344.261333 392.533333,358.4 L392.533333,452.266667 C392.533333,456.979497 388.71283,460.8 384,460.8 L366.933333,460.8 C362.220503,460.8 358.4,456.979497 358.4,452.266667 L358.4,341.333333 C358.427733,317.781333 377.514667,298.6944 401.066667,298.666667 L418.133333,298.666667 C422.846163,298.666667 426.666667,294.846163 426.666667,290.133333 L426.666667,187.733333 C426.66593,184.282488 424.586859,181.171763 421.398652,179.851281 C418.210446,178.5308 414.540751,179.260519 412.100267,181.700267 L371.933867,221.866667 L290.133333,221.866667 C280.7072,221.866667 273.066667,214.226133 273.066667,204.8 C273.066667,195.373867 280.7072,187.733333 290.133333,187.733333 L349.866667,187.733333 C352.129662,187.73285 354.299795,186.833488 355.899733,185.233067 L404.599467,136.533333 L494.933333,136.533333 L494.933333,307.2 Z" id="Shape"></path>
            <path d="M358.4,256 L153.6,256 C148.88717,256 145.066667,259.820503 145.066667,264.533333 C145.066667,269.246163 148.88717,273.066667 153.6,273.066667 L247.466667,273.066667 L247.466667,460.8 L221.866667,460.8 C217.153837,460.8 213.333333,464.620503 213.333333,469.333333 C213.333333,474.046163 217.153837,477.866667 221.866667,477.866667 L290.133333,477.866667 C294.846163,477.866667 298.666667,474.046163 298.666667,469.333333 C298.666667,464.620503 294.846163,460.8 290.133333,460.8 L264.533333,460.8 L264.533333,273.066667 L358.4,273.066667 C363.11283,273.066667 366.933333,269.246163 366.933333,264.533333 C366.933333,259.820503 363.11283,256 358.4,256 Z M452.266667,0 L409.6,0 C404.88717,0 401.066667,3.82050347 401.066667,8.53333333 L401.066667,51.2 C401.066667,79.4773333 423.989333,102.4 452.266667,102.4 C480.544,102.4 503.466667,79.4773333 503.466667,51.2 C503.438933,22.9344 480.532267,0.0277333333 452.266667,0 Z M435.553067,81.0016 C424.763802,74.9698721 418.094911,63.5607643 418.133333,51.2 L418.133168,42.9397333 C441.533711,44.061553 463.918968,52.8333844 481.851733,67.9082667 C472.6816,84.3093333 451.953067,90.1706667 435.553067,81.0016 Z M418.133333,25.8730667 L418.133333,17.0666667 L452.266667,17.0666667 C470.525867,17.1285333 485.501867,31.5488 486.254933,49.792 C466.430368,35.224426 442.713394,26.8968954 418.133333,25.8730667 Z M102.4,0 L59.7333333,0 C31.456,0 8.53333333,22.9226667 8.53333333,51.2 C8.53333333,79.4773333 31.456,102.4 59.7333333,102.4 C87.9989333,102.372267 110.9056,79.4656 110.933333,51.2 L110.933333,8.53333333 C110.933333,3.82050347 107.11283,0 102.4,0 Z M93.8666667,51.2 C93.8666667,70.0512 78.5845333,85.3333333 59.7333333,85.3333333 C47.449944,85.2886541 36.1434552,78.6293377 30.1482667,67.9082667 C48.0810316,52.8333844 70.4662895,44.061553 93.8666667,42.9397333 L93.8666667,51.2 Z M93.8666667,25.8730667 C69.2892937,26.8892981 45.5725317,35.2078417 25.7450667,49.7664 C26.5109333,31.5328 41.4837333,17.1285333 59.7333333,17.0666667 L93.8666667,17.0666667 L93.8666667,25.8730667 Z" id="Shape"></path>
        </g>
    </g>
</svg>