<?xml version="1.0" encoding="UTF-8"?>
<svg width="1024px" height="1024px" viewBox="0 0 1024 1024" version="1.1" xmlns="http://www.w3.org/2000/svg" xmlns:xlink="http://www.w3.org/1999/xlink">
    <!-- Generator: Sketch 52.6 (67491) - http://www.bohemiancoding.com/sketch -->
    <title>Slice 1</title>
    <desc>Created with Sketch.</desc>
    <g id="Page-1" stroke="none" stroke-width="1" fill="none" fill-rule="evenodd">
        <g id="sent_members">
            <rect id="Rectangle" x="0" y="0" width="1024" height="1024"></rect>
            <path d="M354.82,601.82 L175.18,601.82 C161.71,601.82 152.73,610.82 152.73,624.27 C152.73,637.72 161.73,646.73 175.18,646.73 L354.82,646.73 C368.29,646.73 377.27,637.73 377.27,624.27 C377.27,610.81 368.29,601.82 354.82,601.82 Z" id="Path" fill="#002060"></path>
            <path d="M287.45,489.55 L107.82,489.55 C94.34,489.55 85.36,498.55 85.36,512 C85.36,525.45 94.36,534.45 107.82,534.45 L287.45,534.45 C300.93,534.45 309.91,525.45 309.91,512 C309.91,498.55 300.93,489.55 287.45,489.55 Z" id="Path" fill="#002060"></path>
            <path d="M220.09,377.27 L40.45,377.27 C26.98,377.27 18,386.27 18,399.73 C18,413.19 27,422.18 40.45,422.18 L220.09,422.18 C233.56,422.18 242.54,413.18 242.54,399.73 C242.54,386.28 233.56,377.27 220.09,377.27 Z" id="Path" fill="#002060"></path>
            <path d="M911.69,318.89 C904.95,309.89 889.24,307.66 880.25,314.4 L642.25,496.28 C617.468226,514.250287 583.941774,514.250287 559.16,496.28 L321.16,314.4 C312.16,307.66 296.46,307.66 289.72,318.89 C282.98,327.89 282.98,343.59 294.21,350.33 L534.45,532.21 C554.66,547.93 579.36,554.66 601.82,554.66 C624.28,554.66 651.22,547.93 669.18,532.21 L907.18,350.33 C916.18,343.59 918.43,327.87 911.69,318.89 Z" id="Path" fill="#002060"></path>
            <path d="M938.64,220.09 L220.09,220.09 C206.62,220.09 197.64,229.09 197.64,242.55 C197.64,256.01 206.64,265 220.09,265 L938.64,265 C952.11,265 961.09,274 961.09,287.45 L961.09,736.55 C961.09,750.02 952.09,759 938.64,759 L220.09,759 C206.62,759 197.64,768 197.64,781.45 C197.64,794.9 206.64,803.91 220.09,803.91 L938.64,803.91 C976.81,803.91 1006,774.72 1006,736.54 L1006,287.45 C1006,249.28 976.81,220.09 938.64,220.09 Z" id="Path" fill="#002060"></path>
            <path d="M909.45,675.92 L774.72,541.19 C765.72,532.19 752.27,532.19 743.28,541.19 C734.29,550.19 734.28,563.65 743.28,572.63 L878,707.35 C882.096088,711.654467 887.778083,714.091003 893.72,714.091003 C899.661917,714.091003 905.343912,711.654467 909.44,707.35 C918.43,698.37 918.43,684.9 909.45,675.92 Z" id="Path" fill="#002060"></path>
        </g>
    </g>
</svg>