{
    "name": "Committees",
    "alias": "committees",
    "description": "",
    "keywords": [],
    "active": 1,
    "order": 0,
    "providers": [
        "Modules\\Committees\\Providers\\CommitteesServiceProvider",
        "Modules\\Committees\\Providers\\EventServiceProvider"
    ],
    "aliases": {},
    "files": [
        "start.php"
    ],
    "requires": []
}
