<?xml version="1.0" encoding="UTF-8"?>
<svg width="220px" height="162px" viewBox="0 0 220 162" version="1.1" xmlns="http://www.w3.org/2000/svg" xmlns:xlink="http://www.w3.org/1999/xlink">
    <!-- Generator: Sketch 53.2 (72643) - https://sketchapp.com -->
    <title>Shape</title>
    <desc>Created with Sketch.</desc>
    <g id="Page-1" stroke="none" stroke-width="1" fill="none" fill-rule="evenodd">
        <g id="send" transform="translate(-131.000000, -161.000000)" fill="#FFFFFF" fill-rule="nonzero">
            <path d="M350.273438,186.867188 C350.273438,172.65625 338.753906,161.136719 324.542969,161.136719 L157.003906,161.136719 C142.792969,161.136719 131.273438,172.65625 131.273438,186.867188 L131.273438,296.402344 C131.273438,310.613281 142.792969,322.132812 157.003906,322.136719 L324.542969,322.136719 C338.753906,322.132812 350.273438,310.613281 350.273438,296.402344 L350.273438,186.867188 Z M291.546875,241.390625 L335.273438,207.074219 L335.273438,283.835938 L291.546875,241.390625 Z M157.492188,177.136719 L325.054688,177.136719 C330.421875,177.136719 335.273438,181.109375 335.273438,186.476562 L335.273438,186.734375 L251.105469,252.601562 C245.835938,256.609375 238.535156,256.59375 233.277344,252.570312 L147.273438,186.695312 L147.273438,186.476562 C147.273438,181.109375 152.125,177.136719 157.492188,177.136719 Z M147.273438,284.195312 L147.273438,206.878906 L192.488281,241.660156 L147.273438,284.195312 Z M157.492188,305.136719 C155.136719,305.203125 152.84375,304.398438 151.050781,302.875 L205.820312,251.441406 L223.601562,265.171875 C234.5,273.710938 249.816406,273.71875 260.722656,265.191406 L278.359375,251.355469 L331.558594,302.808594 C329.757812,304.371094 327.433594,305.203125 325.050781,305.136719 L157.492188,305.136719 Z" id="Shape"></path>
        </g>
    </g>
</svg>